<?xml version="1.0" encoding="iso-8859-1"?>
<!-- Uploaded to: SVG Repo, www.svgrepo.com, Generator: SVG Repo Mixer Tools -->
<svg fill="#000000" height="800px" width="800px" version="1.1" id="Layer_1" xmlns="http://www.w3.org/2000/svg" xmlns:xlink="http://www.w3.org/1999/xlink" 
	 viewBox="0 0 512 512" xml:space="preserve">
<g>
	<g>
		<path d="M500.398,317.713l-51.2-42.667c-1.536-1.28-3.465-1.98-5.461-1.98H401.07v-34.133c0-4.71-3.823-8.533-8.533-8.533h-27.042
			c-0.521-3.337-1.178-6.63-1.988-9.865l66.159-24.806c2.85-1.075,4.924-3.584,5.419-6.588l7.347-44.075h26.906
			c4.71,0,8.533-3.814,8.533-8.533c0-4.71-3.823-8.533-8.533-8.533h-34.133c-4.173,0-7.731,3.021-8.422,7.134l-7.723,46.336
			l-60.902,22.844c-1.271-2.987-2.688-5.879-4.207-8.73c28.527-14.362,47.121-43.768,47.121-76.117v-76.8
			C401.07,19.14,381.93,0,358.403,0c-4.71,0-8.533,3.823-8.533,8.533v110.933c0,18.825-15.317,34.133-34.133,34.133
			c-0.23,0-0.427,0.111-0.649,0.136c-4.181-2.645-8.542-5-13.073-7.083c8.277-6.229,13.722-16.043,13.722-27.187
			c0-18.816-15.317-34.133-34.133-34.133c-4.71,0-8.533,3.823-8.533,8.533c0,4.719,3.823,8.533,8.533,8.533
			c9.412,0,17.067,7.654,17.067,17.067s-7.654,17.067-17.067,17.067c-2.005,0-3.772,0.802-5.222,1.954
			c-6.613-1.237-13.414-1.954-20.378-1.954c-6.972,0-13.764,0.717-20.378,1.954c-1.459-1.152-3.217-1.954-5.222-1.954
			c-9.412,0-17.067-7.654-17.067-17.067s7.654-17.067,17.067-17.067c4.71,0,8.533-3.814,8.533-8.533c0-4.71-3.823-8.533-8.533-8.533
			c-18.825,0-34.133,15.317-34.133,34.133c0,11.145,5.436,20.958,13.722,27.187c-4.531,2.082-8.9,4.437-13.082,7.083
			c-0.222-0.026-0.41-0.136-0.64-0.136c-18.825,0-34.133-15.309-34.133-34.133V8.533c0-4.71-3.823-8.533-8.533-8.533
			c-23.526,0-42.667,19.14-42.667,42.667v76.8c0,32.35,18.594,61.756,47.112,76.117c-1.51,2.85-2.935,5.743-4.198,8.73L92.94,181.47
			l-7.723-46.336c-0.683-4.113-4.241-7.134-8.414-7.134H42.67c-4.71,0-8.533,3.823-8.533,8.533c0,4.719,3.823,8.533,8.533,8.533
			h26.906l7.339,44.075c0.503,3.004,2.569,5.513,5.427,6.588l66.15,24.806c-0.811,3.234-1.459,6.528-1.98,9.865H119.47
			c-4.71,0-8.533,3.823-8.533,8.533v34.133H68.27c-1.997,0-3.934,0.7-5.461,1.98l-51.2,42.667
			c-3.627,3.021-4.113,8.397-1.092,12.015c1.69,2.031,4.113,3.072,6.554,3.072c1.929,0,3.866-0.648,5.461-1.98l48.828-40.687h39.578
			v30.14L62.808,360.38c-3.149,2.62-3.994,7.117-1.997,10.701l40.329,72.593l-31.744,55.561c-2.338,4.096-0.922,9.31,3.174,11.639
			c1.331,0.768,2.79,1.126,4.224,1.126c2.961,0,5.837-1.536,7.415-4.301l34.133-59.733c1.485-2.586,1.502-5.76,0.051-8.38
			l-39.236-70.613l32.247-26.88c4.83,75.657,67.738,135.774,144.597,135.774c76.851,0,139.767-60.117,144.597-135.774l32.239,26.88
			l-39.228,70.613c-1.451,2.62-1.434,5.794,0.051,8.38l34.133,59.733c1.57,2.765,4.454,4.301,7.415,4.301
			c1.434,0,2.893-0.358,4.224-1.126c4.087-2.33,5.513-7.543,3.174-11.639l-31.744-55.561l40.328-72.593
			c1.988-3.584,1.152-8.081-1.997-10.701l-48.128-40.107v-30.14h39.578l48.828,40.687c1.596,1.331,3.533,1.98,5.453,1.98
			c2.449,0,4.873-1.041,6.562-3.072C504.502,326.11,504.016,320.734,500.398,317.713z M349.665,248.482
			c-0.068,0.572-0.085,1.169-0.205,1.724c-0.137,0.623-0.367,1.203-0.563,1.801c-0.171,0.521-0.29,1.067-0.512,1.57
			c-0.247,0.572-0.58,1.092-0.887,1.638c-0.265,0.469-0.486,0.964-0.785,1.408c-0.35,0.512-0.785,0.956-1.186,1.434
			c-0.341,0.401-0.648,0.845-1.024,1.22c-0.444,0.435-0.956,0.794-1.434,1.186c-0.418,0.333-0.802,0.708-1.246,1.007
			c-0.538,0.367-1.143,0.632-1.724,0.939c-0.444,0.23-0.862,0.521-1.331,0.717c-0.674,0.282-1.408,0.452-2.125,0.657
			c-0.427,0.119-0.819,0.299-1.254,0.384c-1.169,0.239-2.381,0.367-3.627,0.367H180.236c-1.237,0-2.449-0.128-3.618-0.367
			c-0.435-0.085-0.836-0.265-1.254-0.384c-0.717-0.205-1.451-0.375-2.125-0.657c-0.469-0.196-0.888-0.486-1.34-0.717
			c-0.58-0.307-1.178-0.572-1.724-0.939c-0.444-0.299-0.828-0.674-1.237-1.007c-0.486-0.393-0.998-0.751-1.434-1.186
			c-0.375-0.375-0.683-0.819-1.033-1.22c-0.401-0.478-0.828-0.922-1.178-1.434c-0.307-0.444-0.529-0.939-0.785-1.408
			c-0.307-0.546-0.649-1.067-0.896-1.638c-0.213-0.503-0.341-1.05-0.512-1.57c-0.188-0.597-0.427-1.178-0.555-1.801
			c-0.119-0.555-0.137-1.152-0.205-1.724c-0.068-0.64-0.188-1.254-0.196-1.911c0.179-18.765,5.922-36.198,15.607-50.807
			c1.024-1.536,2.125-3.004,3.226-4.463c0.657-0.879,1.297-1.784,1.98-2.637c1.186-1.459,2.441-2.859,3.712-4.25
			c0.674-0.742,1.34-1.502,2.039-2.227c1.442-1.485,2.953-2.901,4.497-4.284c0.58-0.529,1.143-1.058,1.732-1.57
			c1.732-1.476,3.533-2.884,5.376-4.25c15.599-11.554,34.825-18.483,55.689-18.483s40.09,6.929,55.689,18.483
			c1.843,1.365,3.644,2.773,5.367,4.25c0.597,0.512,1.161,1.041,1.732,1.57c1.545,1.382,3.063,2.799,4.506,4.284
			c0.7,0.725,1.365,1.485,2.039,2.227c1.271,1.391,2.526,2.79,3.703,4.25c0.691,0.853,1.331,1.758,1.988,2.637
			c1.101,1.459,2.202,2.927,3.217,4.463c9.685,14.609,15.428,32.043,15.607,50.807C349.853,247.228,349.733,247.842,349.665,248.482
			z"/>
	</g>
</g>
</svg>