<?xml version="1.0" encoding="iso-8859-1"?>
<!-- Uploaded to: SVG Repo, www.svgrepo.com, Generator: SVG Repo Mixer Tools -->
<svg fill="#000000" height="800px" width="800px" version="1.1" id="Layer_1" xmlns="http://www.w3.org/2000/svg" xmlns:xlink="http://www.w3.org/1999/xlink" 
	 viewBox="0 0 512.002 512.002" xml:space="preserve">
<g>
	<g>
		<path d="M493.631,331.964l-26.483-61.793c-0.609-1.421-1.58-2.657-2.816-3.584l-70.621-52.966
			c-1.289-0.971-2.816-1.562-4.414-1.721l-88.276-8.828c-0.883-0.088-1.704,0.088-2.525,0.247
			c-5.279-5.005-11.132-9.092-17.426-12.094c1.58-1.792,3.01-3.752,4.264-5.853h41.287c1.368,0,2.728-0.318,3.946-0.927
			l88.276-44.138c2.789-1.404,4.634-4.167,4.864-7.274l8.828-123.586c0.344-4.855-3.319-9.084-8.183-9.437
			c-4.838-0.238-9.084,3.319-9.437,8.183l-8.466,118.563l-81.911,40.96h-33.624c0.15-1.465,0.397-2.904,0.397-4.414
			c0-1.889-0.265-3.699-0.494-5.517c15.439-3.769,26.977-17.62,26.977-34.207c0-19.474-15.837-35.31-35.31-35.31
			c-4.873,0-8.828,3.955-8.828,8.828c0,4.873,3.955,8.828,8.828,8.828c9.737,0,17.655,7.918,17.655,17.655
			c0,8.819-6.515,16.084-14.972,17.382c-6.365-10.478-17.055-17.382-29.166-17.382c-12.111,0-22.802,6.903-29.166,17.382
			c-8.457-1.298-14.972-8.563-14.972-17.382c0-9.737,7.918-17.655,17.655-17.655c4.873,0,8.828-3.955,8.828-8.828
			c0-4.873-3.955-8.828-8.828-8.828c-19.474,0-35.31,15.837-35.31,35.31c0,16.587,11.538,30.438,26.977,34.207
			c-0.229,1.818-0.494,3.628-0.494,5.517c0,1.51,0.247,2.948,0.397,4.414h-33.624l-81.911-40.96L97.087,8.194
			c-0.353-4.864-4.467-8.404-9.437-8.183c-4.864,0.353-8.527,4.582-8.183,9.437l8.828,123.586c0.23,3.107,2.075,5.87,4.864,7.274
			l88.276,44.138c1.218,0.609,2.578,0.927,3.946,0.927h41.287c1.254,2.101,2.684,4.061,4.264,5.853
			c-6.294,3.001-12.147,7.089-17.435,12.094c-0.821-0.159-1.633-0.335-2.516-0.247l-88.276,8.828
			c-1.598,0.159-3.125,0.75-4.414,1.721L47.67,266.587c-1.236,0.927-2.207,2.163-2.816,3.584l-26.483,61.793
			c-1.924,4.484,0.159,9.675,4.634,11.591c1.13,0.486,2.313,0.724,3.478,0.724c3.425,0,6.682-2.013,8.113-5.358l25.556-59.622
			l66.763-50.079l71.918-7.186c-6.435,11.096-10.823,24.108-12.553,38.232l-51.279,51.279c-1.474,1.474-2.383,3.425-2.56,5.508
			l-8.828,105.931c-0.124,1.483,0.132,2.957,0.733,4.317l35.31,79.448c1.465,3.293,4.687,5.252,8.077,5.252
			c1.192,0,2.41-0.247,3.575-0.768c4.458-1.986,6.462-7.195,4.484-11.652l-34.392-77.383l8.369-100.458l36.317-36.317
			c4.626,43.114,34.18,76.5,69.914,76.5c35.734,0,65.289-33.386,69.914-76.5l36.317,36.317l8.369,100.458l-34.392,77.383
			c-1.977,4.458,0.026,9.666,4.484,11.652c1.165,0.521,2.383,0.768,3.584,0.768c3.372,0,6.603-1.96,8.068-5.252l35.31-79.448
			c0.6-1.359,0.856-2.834,0.733-4.317l-8.828-105.931c-0.177-2.083-1.077-4.034-2.56-5.508l-51.279-51.279
			c-1.73-14.124-6.117-27.136-12.553-38.232l71.918,7.186l66.763,50.079l25.556,59.622c1.43,3.346,4.687,5.358,8.121,5.358
			c1.156,0,2.339-0.238,3.469-0.724C493.472,341.639,495.555,336.448,493.631,331.964z"/>
	</g>
</g>
</svg>